{
  "tags": {
    "allowUnknownTags": true,
    "dictionaries": ["jsdoc"]
  },
  "plugins": [
    "plugins/markdown"
  ],
  "templates": {
    "cleverLinks": true,
    "monospaceLinks": true
  },
  "source": {
    "include": ["src", "README.md"],
    "includePattern": "\\.js$",
    "excludePattern": "(node_modules/|docs)"
  },
  "opts": {
    "encoding": "utf8",
    "destination": "./docs/",
    "private": false,
    "recurse": true,
    "template": "node_modules/hopsdoc"
  }
}
